<svg width="199" height="65" viewBox="0 0 199 65" fill="none" xmlns="http://www.w3.org/2000/svg">
<path d="M0 0H61C95.7939 0 124 28.2061 124 63H63C28.2061 63 0 34.7939 0 0Z" fill="#3BD671"/>
<path d="M11.0781 40.9766V53H4.04688V18.875H17.3594C19.9219 18.875 22.1719 19.3438 24.1094 20.2812C26.0625 21.2188 27.5625 22.5547 28.6094 24.2891C29.6562 26.0078 30.1797 27.9688 30.1797 30.1719C30.1797 33.5156 29.0312 36.1562 26.7344 38.0938C24.4531 40.0156 21.2891 40.9766 17.2422 40.9766H11.0781ZM11.0781 35.2812H17.3594C19.2188 35.2812 20.6328 34.8438 21.6016 33.9688C22.5859 33.0938 23.0781 31.8438 23.0781 30.2188C23.0781 28.5469 22.5859 27.1953 21.6016 26.1641C20.6172 25.1328 19.2578 24.6016 17.5234 24.5703H11.0781V35.2812ZM48.8359 33.9922C47.9141 33.8672 47.1016 33.8047 46.3984 33.8047C43.8359 33.8047 42.1562 34.6719 41.3594 36.4062V53H34.5859V27.6406H40.9844L41.1719 30.6641C42.5312 28.3359 44.4141 27.1719 46.8203 27.1719C47.5703 27.1719 48.2734 27.2734 48.9297 27.4766L48.8359 33.9922ZM50.2188 40.0859C50.2188 37.5703 50.7031 35.3281 51.6719 33.3594C52.6406 31.3906 54.0312 29.8672 55.8438 28.7891C57.6719 27.7109 59.7891 27.1719 62.1953 27.1719C65.6172 27.1719 68.4062 28.2188 70.5625 30.3125C72.7344 32.4062 73.9453 35.25 74.1953 38.8438L74.2422 40.5781C74.2422 44.4688 73.1562 47.5938 70.9844 49.9531C68.8125 52.2969 65.8984 53.4688 62.2422 53.4688C58.5859 53.4688 55.6641 52.2969 53.4766 49.9531C51.3047 47.6094 50.2188 44.4219 50.2188 40.3906V40.0859ZM56.9922 40.5781C56.9922 42.9844 57.4453 44.8281 58.3516 46.1094C59.2578 47.375 60.5547 48.0078 62.2422 48.0078C63.8828 48.0078 65.1641 47.3828 66.0859 46.1328C67.0078 44.8672 67.4688 42.8516 67.4688 40.0859C67.4688 37.7266 67.0078 35.8984 66.0859 34.6016C65.1641 33.3047 63.8672 32.6562 62.1953 32.6562C60.5391 32.6562 59.2578 33.3047 58.3516 34.6016C57.4453 35.8828 56.9922 37.875 56.9922 40.5781ZM87.5547 35.2109L91.8203 27.6406H99.0625L91.8438 40.0625L99.3672 53H92.1016L87.5781 45.0312L83.0781 53H75.7891L83.3125 40.0625L76.1172 27.6406H83.3828L87.5547 35.2109ZM111.789 43.4141L116.477 27.6406H123.742L113.547 56.9375L112.984 58.2734C111.469 61.5859 108.969 63.2422 105.484 63.2422C104.5 63.2422 103.5 63.0938 102.484 62.7969V57.6641L103.516 57.6875C104.797 57.6875 105.75 57.4922 106.375 57.1016C107.016 56.7109 107.516 56.0625 107.875 55.1562L108.672 53.0703L99.7891 27.6406H107.078L111.789 43.4141Z" fill="white"/>
<path d="M126.859 53V18.875H138.812C142.953 18.875 146.094 19.6719 148.234 21.2656C150.375 22.8438 151.445 25.1641 151.445 28.2266C151.445 29.8984 151.016 31.375 150.156 32.6562C149.297 33.9219 148.102 34.8516 146.57 35.4453C148.32 35.8828 149.695 36.7656 150.695 38.0938C151.711 39.4219 152.219 41.0469 152.219 42.9688C152.219 46.25 151.172 48.7344 149.078 50.4219C146.984 52.1094 144 52.9688 140.125 53H126.859ZM133.891 38.1406V47.3516H139.914C141.57 47.3516 142.859 46.9609 143.781 46.1797C144.719 45.3828 145.188 44.2891 145.188 42.8984C145.188 39.7734 143.57 38.1875 140.336 38.1406H133.891ZM133.891 33.1719H139.094C142.641 33.1094 144.414 31.6953 144.414 28.9297C144.414 27.3828 143.961 26.2734 143.055 25.6016C142.164 24.9141 140.75 24.5703 138.812 24.5703H133.891V33.1719ZM171.32 33.9922C170.398 33.8672 169.586 33.8047 168.883 33.8047C166.32 33.8047 164.641 34.6719 163.844 36.4062V53H157.07V27.6406H163.469L163.656 30.6641C165.016 28.3359 166.898 27.1719 169.305 27.1719C170.055 27.1719 170.758 27.2734 171.414 27.4766L171.32 33.9922ZM172.703 40.0859C172.703 37.5703 173.188 35.3281 174.156 33.3594C175.125 31.3906 176.516 29.8672 178.328 28.7891C180.156 27.7109 182.273 27.1719 184.68 27.1719C188.102 27.1719 190.891 28.2188 193.047 30.3125C195.219 32.4062 196.43 35.25 196.68 38.8438L196.727 40.5781C196.727 44.4688 195.641 47.5938 193.469 49.9531C191.297 52.2969 188.383 53.4688 184.727 53.4688C181.07 53.4688 178.148 52.2969 175.961 49.9531C173.789 47.6094 172.703 44.4219 172.703 40.3906V40.0859ZM179.477 40.5781C179.477 42.9844 179.93 44.8281 180.836 46.1094C181.742 47.375 183.039 48.0078 184.727 48.0078C186.367 48.0078 187.648 47.3828 188.57 46.1328C189.492 44.8672 189.953 42.8516 189.953 40.0859C189.953 37.7266 189.492 35.8984 188.57 34.6016C187.648 33.3047 186.352 32.6562 184.68 32.6562C183.023 32.6562 181.742 33.3047 180.836 34.6016C179.93 35.8828 179.477 37.875 179.477 40.5781Z" fill="#3BD671"/>
</svg>
